RTLVision/RTLVision.sim/sim_1/behav/xsim/simulate.log
Time resolution is 1 ps
data->227
data-> 11
data->212
data->246
data->197
data->193
data-> 67
data->168
data->205
data-> 23
read data: 
	  x   x 227 
	  x   x 193 
	  x   x  23
read data: 
	  x 227  11 
	  x 193  67 
	  x  23   0
read data: 
	227  11 212 
	193  67 168 
	 23   0   1
read data: 
	 11 212 246 
	 67 168 205 
	  0   1   2
read data: 
	212 246 197 
	168 205  23 
	  1   2   3
read data: 
	246 197 193 
	205  23   0 
	  2   3   4
read data: 
	197 193  67 
	 23   0   1 
	  3   4   5
read data: 
	193  67 168 
	  0   1   2 
	  4   5   6
read data: 
	 67 168 205 
	  1   2   3 
	  5   6   7
read data: 
	168 205  23 
	  2   3   4 
	  6   7   8
read data: 
	205  23   0 
	  3   4   5 
	  7   8   9
$finish called at time : 216 ns : File "/home/rt7/Desktop/RTLVision/RTLVision/RTLVision.srcs/examples/new/tb_fifo_pipeline.sv" Line 87
INFO: xsimkernel Simulation Memory Usage: 281144 KB (Peak: 338416 KB), Simulation CPU Usage: 640 ms
